{
   "debug_info" : [],
   "html_attributions" : [
      "Listings by \u003ca href=\"http://www.telstra.com/\"\u003eTelstra\u003c/a\u003e"
   ],
   "next_page_token" : "",
	"results" :[
		{
			"geometry": {
				"location": {
					"lat": -33.818738,
					"lng": 151.191422
				}
			},
			"name": "4 A HERBERT STREET",
			"vicinity": "4 A HERBERT STREET,ST LEONARDS,NSW,2065"
		},
		{
			"geometry": {
				"location": {
					"lat": -33.8687911,
					"lng": 151.2069968
				}
			},
			"name": "400 GEORGE STREET",
			"vicinity": "400 GEORGE STREET,SYDNEY,NSW,2000"
		},
		{
			"geometry": {
				"location": {
					"lat": -33.8756572,
					"lng": 151.2081811
				}
			},
			"name": "320 PITT STREET",
			"vicinity": "320 PITT STREET,SYDNEY,NSW,2000"
		},
		{
			"geometry": {
				"location": {
					"lat": -33.8747372,
					"lng": 151.2096923
				}
			},
			"name": "231 ELIZABETH STREET",
			"vicinity": "231 ELIZABETH STREET,SYDNEY,NSW,2000"
		},
		{
			"geometry": {
				"location": {
					"lat": -33.8772119,
					"lng": 151.1013412
				}
			},
			"name": "52 RAILWAY PARADE",
			"vicinity": "52 RAILWAY PARADE,BURWOOD,NSW,2134"
		},
		{
			"geometry": {
				"location": {
					"lat": -27.4694166,
					"lng": 153.0224075
				}
			},
			"name": "275 GEORGE STREET",
			"vicinity": "275 GEORGE STREET,BRISBANE,QLD,4000"
		},
		{
			"geometry": {
				"location": {
					"lat": -27.4690807,
					"lng": 153.0226276
				}
			},
			"name": "69 ANN STREET",
			"vicinity": "69 ANN STREET,BRISBANE,QLD,4000"
		},
		{
			"geometry": {
				"location": {
					"lat": -27.4690807,
					"lng": 153.0226276
				}
			},
			"name": "69 ANN STREET",
			"vicinity": "69 ANN STREET,BRISBANE,QLD,4001"
		},
		{
			"geometry": {
				"location": {
					"lat": -28.074776,
					"lng": 153.421181
				}
			},
			"name": "1 LAKE ORR DRIVE",
			"vicinity": "1 LAKE ORR DRIVE,VARSITY LAKES,QLD,4227"
		},
		{
			"geometry": {
				"location": {
					"lat": -27.4694166,
					"lng": 153.0224075
				}
			},
			"name": "275 GEORGE STREET",
			"vicinity": "275 GEORGE STREET,BRISBANE,QLD,7000"
		},
		{
			"geometry": {
				"location": {
					"lat": -34.92533,
					"lng": 138.600951
				}
			},
			"name": "30 PIRIE STREET",
			"vicinity": "30 PIRIE STREET,ADELAIDE,SA,5000"
		},
		{
			"geometry": {
				"location": {
					"lat": -42.8815147,
					"lng": 147.3296396
				}
			},
			"name": "70 COLLINS STREET",
			"vicinity": "70 COLLINS STREET,HOBART,TAS,7000"
		},
		{
			"geometry": {
				"location": {
					"lat": -37.8095297,
					"lng": 144.9700069
				}
			},
			"name": "242 EXHIBITION STREET",
			"vicinity": "242 EXHIBITION STREET,MELBOURNE,VIC,3000"
		},
		{
			"geometry": {
				"location": {
					"lat": -37.8129902,
					"lng": 144.9549744
				}
			},
			"name": "485 LA TROBE STREET",
			"vicinity": "485 LA TROBE STREET,MELBOURNE,VIC,3000"
		},
		{
			"geometry": {
				"location": {
					"lat": -37.8139379,
					"lng": 144.9724979
				}
			},
			"name": "35 COLLINS STREET",
			"vicinity": "35 COLLINS STREET,MELBOURNE,VIC,3001"
		},
		{
			"geometry": {
				"location": {
					"lat": -37.8183314,
					"lng": 144.9499919
				}
			},
			"name": "717 BOURKE STREET",
			"vicinity": "717 BOURKE STREET,MELBOURNE,VIC,3008"
		},
		{
			"geometry": {
				"location": {
					"lat": -37.8191097,
					"lng": 144.9575863
				}
			},
			"name": "525 COLLINS STREET",
			"vicinity": "525 COLLINS STREET,MELBOURNE,VIC,3000"
		},
		{
			"geometry": {
				"location": {
					"lat": -37.8139379,
					"lng": 144.9724979
				}
			},
			"name": "35 COLLINS STREET",
			"vicinity": "35 COLLINS STREET,MELBOURNE,VIC,3000"
		},
		{
			"geometry": {
				"location": {
					"lat": -37.810648,
					"lng": 144.96651
				}
			},
			"name": "180 LONSDALE STREET",
			"vicinity": "180 LONSDALE STREET,MELBOURNE,VIC,3000"
		},
		{
			"geometry": {
				"location": {
					"lat": -37.8103468,
					"lng": 144.9604959
				}
			},
			"name": "300 LA TROBE STREET",
			"vicinity": "300 LA TROBE STREET,MELBOURNE,VIC,3000"
		}
	],
   "status" : "OK"
}